<?xml version="1.0" encoding="utf-8"?>
<!-- Generator: Adobe Illustrator 19.1.0, SVG Export Plug-In . SVG Version: 6.00 Build 0)  -->
<svg version="1.1" id="Layer_1" xmlns="http://www.w3.org/2000/svg" xmlns:xlink="http://www.w3.org/1999/xlink" x="0px" y="0px"
	 width="200px" height="200px" viewBox="0 0 200 200" style="enable-background:new 0 0 200 200;" xml:space="preserve">
<style type="text/css">
	.st0{fill:#1A43CE;}
</style>
<g>
	<path class="st0" d="M32.01,71.61c0,0-2.05,9.7-3.63,24.17c-1.58,14.47,7.1,20.74,8.05,23.43s-1.58,17.01-1.58,30.89
		s-0.22,24.82-7.58,29.25c-1.74,1.04-5.05-2.54-7.58,2.98c-2.53,5.52-1.42,6.71-1.42,6.71h21.78c0,0,12.47-42.08,14.2-41.48
		c0,0-8.21-7.01-9.15-16.12c-0.95-9.1,0.95-19.1-1.26-22.38s-1.16-3.64-6.79-6.57c-1.58-0.82-1.58-2.76-1.42-3.28
		c0.16-0.52-2.6-1.04-0.87-3.73c1.74-2.69,8.87-8.82,14.84-11.64c0.47-0.22,0-2.39,0.87-4.48c0.87-2.09,2.76-3.66,3.08-1.34
		c0.32,2.31,0,4.18,0.71,4.18s1.03-0.75,1.03-0.75s0-4.18,1.58-5.37c1.58-1.19,2.6-0.22,2.13,2.09s0.08,5.67,3,8.28
		c2.92,2.61,8.44,7.61,8.6,13.58c0.16,5.97,0.08,11.86,0.87,12.39s16.57,4.4,26.2,15.22s14.28,15.59,14.6,33.43
		c0.32,17.83-0.55,17.76,1.5,17.83c2.05,0.07,18.78,3.73,25.57-11.34c6.79-15.07-3.71-34.92-6.63-38.72
		c-2.92-3.81-23.2-29.47-39.62-44.24S71.15,56.84,70.52,56.84s-10.1,6.57-21.94,10.15S33.9,71.46,32.01,71.61z"/>
	<path class="st0" d="M136.9,178.4c0,0,5.85-4.9,6.85-14.06c0,0,13.37,9.25,27.9,5.85c16.21-3.79,18.55-22.27,21.05-45.02
		c0,0,12.62,43.78-18.21,53.08C151.44,185.2,136.9,178.4,136.9,178.4z"/>
	<path class="st0" d="M61.71,44.44c-1.79,0.85,4.18,4.11,3.84,6.48c-0.33,2.37-3.17,5.69-15.87,10.11s-21.39,8.69-19.88,0
		c1.5-8.69-4.34-11.85-8.69-11.85S8.25,52.03,5.57,46.02s2.67-1.58,7.18-6.95s-5.18-2.21-6.85-9.64S3.9,19.64,7.91,18.22
		c4.01-1.42,10.12,0,10.12,0s4.91-8.53,13.1-7.11s14.37,4.42,17.71,7.11c3.34,2.69,9.69,4.58,11.53,5.69
		c1.84,1.11,4.18,7.11,3.17,10.27C62.55,37.33,64.05,43.34,61.71,44.44z"/>
</g>
</svg>
